{
    "label": {
        "de": "Mindestalter für Neukunden",
        "en": "Customer Minimum Age"
    },
    "copyright": "Copyright (c) 2015, Simon Eilting",
    "license": "BSD",
    "link": "https://bitbucket.org/s-eilt/segmincustage",
    "author": "Simon Eilting <simon@eilting.net>",

    "currentVersion": "1.1.0",

    "changelog": {
        "de": {
            "1.1.0": "Shopware-5-Support und Bugfixes",
            "1.0.0": "Erstveröffentlichung"
        },
        "en": {
            "1.1.0": "Shopware 5 support and bug fixes",
            "1.0.0": "First release"
        }
    },

    "compatibility": {
        "minimumVersion": "4.3.0",
        "maximumVersion": null,
        "blacklist": [
        ]
    }
}
